{
  "id": "10536376",
  "name": "Высшая Школа Библиотекарей. Хроники книгоходцев",
  "author": "Милена Завойчинская",
  "year": "2016",
  "imageUrl": "public/books/10536376_0.jpg",
  "price": 12.07,
  "inStock": false,
    "images": [
        "public/books/10536376_0.jpg",
        "public/books/10536376_2.jpg",
        "public/books/10536376_15.jpg"
    ],
    "description": "Даже самая интересная учеба когда-нибудь да заканчивается. Книгоходцам Кире Золотовой и Карелу Вестову предстоит совсем скоро покинуть ВШБ. Однако до диплома еще надо добраться живыми и желательно невредимыми. А с повышенной любовью этой парочки к приключениям и способностью притягивать проблемы сделать это, пожалуй, будет не так просто. Тем более что в планах на ближайшее будущее - высиживание драконьих яиц, разборки с местной мафией, путешествие в азиатские джунгли и выяснение таких запутанных отношений. И лишь потом - выпускные экзамены..."
}
