{
  "id": "10539351",
  "name": "Древний. Предыстория. Книга четвертая",
  "author": "Сергей Тармашев",
  "year": "2016",
  "imageUrl": "public/books/10539351_0.jpg",
  "price": 15.36,
  "inStock": true,
    "images": [
        "public/books/10539351_0.jpg",
        "public/books/10539351_5.jpg",
        "public/books/10539351_6.jpg",
        "public/books/10539351_15.jpg"
    ],
    "description": "Живущие инстинктами, эгоизмом и жаждой наживы, отчаянно пытаются изобрести рецепт бессмертия, ибо ощущают, что их Сущность обеднела настолько, что после смерти разумными существами им уже не быть. Иначе происходит с Разумом, который посвятил свою жизнь деяниям во имя Рода, Родины и Расы…\r\nЭту книга поклонники легендарной саги \"Древней\" ждали с момента публикации \"Катастрофы\", которая когда-то стала настоящей сенсацией и перевернула представление о фантастическом бестселлере, и не только в России. Каждый роман о великом воине Тринадцатом, его сражениях и его любви, дополнял Вселенные Сергея Тармашева, но ставил перед читателями все более и более интригующие вопросы. Противостояние Рас, суть смерти и цена бессмертия, обретение Вечности…\r\nИ вот, когда интерес как никогда высок, завершение \"Предыстории\" даст наконец ряд долгожданных разгадок!"
}
